{
    "KPlugin": {
        "Authors": [
            {
                "Email": "plasma-devel@kde.org",
                "Name": "Martin Graesslin",
                "Name[ar]": "Martin Graesslin",
                "Name[az]": "Martin Graesslin",
                "Name[be]": "Martin Graesslin",
                "Name[bg]": "Martin Graesslin",
                "Name[ca@valencia]": "Martin Graesslin",
                "Name[ca]": "Martin Graesslin",
                "Name[cs]": "Martin Graesslin",
                "Name[da]": "Martin Graesslin",
                "Name[de]": "Martin Graesslin",
                "Name[en_GB]": "Martin Graesslin",
                "Name[es]": "Martin Graesslin",
                "Name[et]": "Martin Graesslin",
                "Name[eu]": "Martin Graesslin",
                "Name[fi]": "Martin Graesslin",
                "Name[fr]": "Martin Graesslin",
                "Name[hu]": "Martin Graesslin",
                "Name[ia]": "Martin Graesslin",
                "Name[id]": "Martin Graesslin",
                "Name[ie]": "Martin Graesslin",
                "Name[is]": "Martin Graesslin",
                "Name[it]": "Martin Graesslin",
                "Name[ja]": "Martin Graesslin",
                "Name[ka]": "მარტინ გრესსლინი",
                "Name[ko]": "Martin Graesslin",
                "Name[lt]": "Martin Graesslin",
                "Name[nl]": "Martin Graesslin",
                "Name[nn]": "Martin Graesslin",
                "Name[pl]": "Martin Graesslin",
                "Name[pt]": "Martin Graesslin",
                "Name[pt_BR]": "Martin Graesslin",
                "Name[ro]": "Martin Graesslin",
                "Name[ru]": "Martin Graesslin",
                "Name[sk]": "Martin Graesslin",
                "Name[sl]": "Martin Graesslin",
                "Name[sv]": "Martin Graesslin",
                "Name[ta]": "மார்ட்டின் கிராஸ்லின்",
                "Name[tr]": "Martin Graesslin",
                "Name[uk]": "Martin Graesslin",
                "Name[vi]": "Martin Graesslin",
                "Name[x-test]": "xxMartin Graesslinxx",
                "Name[zh_CN]": "Martin Graesslin"
            },
            {
                "Email": "mikel5764@gmail.com",
                "Name": "Mikel Johnson",
                "Name[ar]": "Mikel Johnson",
                "Name[az]": "Mikel Johnson",
                "Name[be]": "Mikel Johnson",
                "Name[bg]": "Mikel Johnson",
                "Name[ca@valencia]": "Mikel Johnson",
                "Name[ca]": "Mikel Johnson",
                "Name[cs]": "Mikel Johnson",
                "Name[da]": "Mikel Johnson",
                "Name[de]": "Mikel Johnson",
                "Name[en_GB]": "Mikel Johnson",
                "Name[es]": "Mikel Johnson",
                "Name[et]": "Mikel Johnson",
                "Name[eu]": "Mikel Johnson",
                "Name[fi]": "Mikel Johnson",
                "Name[fr]": "Mikel Johnson",
                "Name[hu]": "Mikel Johnson",
                "Name[ia]": "Mikel Johnson",
                "Name[id]": "Mikel Johnson",
                "Name[ie]": "Mikel Johnson",
                "Name[is]": "Mikel Johnson",
                "Name[it]": "Mikel Johnson",
                "Name[ja]": "Mikel Johnson",
                "Name[ka]": "მიკელ ჯონსონი",
                "Name[ko]": "Mikel Johnson",
                "Name[lt]": "Mikel Johnson",
                "Name[nl]": "Mikel Johnson",
                "Name[nn]": "Mikel Johnson",
                "Name[pl]": "Mikel Johnson",
                "Name[pt]": "Mikel Johnson",
                "Name[pt_BR]": "Mikel Johnson",
                "Name[ro]": "Mikel Johnson",
                "Name[ru]": "Mikel Johnson",
                "Name[sk]": "Mikel Johnson",
                "Name[sl]": "Mikel Johnson",
                "Name[sv]": "Mikel Johnson",
                "Name[ta]": "மிக்கேல் ஜான்ஸன்",
                "Name[tr]": "Mikel Johnson",
                "Name[uk]": "Mikel Johnson",
                "Name[vi]": "Mikel Johnson",
                "Name[x-test]": "xxMikel Johnsonxx",
                "Name[zh_CN]": "Mikel Johnson"
            }
        ],
        "BugReportUrl": "https://bugs.kde.org/enter_bug.cgi?product=plasmashell&component=Application%20Launcher%20(Kickoff)",
        "Category": "Application Launchers",
        "Description": "Launcher to start applications",
        "Description[ar]": "مطلق لبدء التّطبيقات",
        "Description[az]": "Tətbiqləri açmaq üçün başladıcı",
        "Description[be]": "Сродак для запуску праграм",
        "Description[bg]": "Стартиране на програми",
        "Description[ca@valencia]": "Iniciador per a iniciar aplicacions",
        "Description[ca]": "Llançador per a iniciar aplicacions",
        "Description[cs]": "Aplikace pro spouštění aplikací",
        "Description[da]": "Til at starte programmer",
        "Description[de]": "Ermöglicht den Aufruf verschiedenster Programme",
        "Description[en_GB]": "Launcher to start applications",
        "Description[es]": "Lanzador para iniciar aplicaciones",
        "Description[et]": "Rakenduste käivitaja",
        "Description[eu]": "Aplikazioak abiatzeko abiarazlea",
        "Description[fi]": "Sovellusten käynnistysvalikko",
        "Description[fr]": "Lanceur pour démarrer des applications",
        "Description[hu]": "Alkalmazásindító",
        "Description[ia]": "Lanceator pro initiar applicationes",
        "Description[id]": "Peluncur untuk meluncurkan aplikasi",
        "Description[ie]": "Lansator de applicationes",
        "Description[is]": "Flýtiræsing forrita",
        "Description[it]": "Avviatore per far partire le applicazioni",
        "Description[ja]": "アプリケーションを起動するランチャー",
        "Description[ka]": "აპლიკაციების გამშვები",
        "Description[ko]": "프로그램을 시작하는 실행기",
        "Description[lt]": "Programų paleidimo paleidyklė",
        "Description[nl]": "Applet voor het starten van programma's",
        "Description[nn]": "Moderne programstartar",
        "Description[pa]": "ਐਪਲੀਕੇਸ਼ਨ ਚਲਾਉਣ ਲਈ ਲਾਂਚਰ",
        "Description[pl]": "Uruchamiacz do uruchamiana programów",
        "Description[pt]": "Lançador para iniciar aplicações",
        "Description[pt_BR]": "Lançador para iniciar aplicativos",
        "Description[ro]": "Lansator pentru a porni aplicații",
        "Description[ru]": "Современное меню запуска приложений",
        "Description[sk]": "Spúšťač na spúšťanie aplikácií",
        "Description[sl]": "Zaganjalnik za zagon programov",
        "Description[sv]": "Startprogram för att köra program",
        "Description[ta]": "செயலிகளை துவக்க உதவும் ஏவி",
        "Description[tr]": "Uygulamaları başlatmak için çalıştırıcı",
        "Description[uk]": "Програма для запуску програм",
        "Description[vi]": "Trình khởi chạy để khởi động ứng dụng",
        "Description[x-test]": "xxLauncher to start applicationsxx",
        "Description[zh_CN]": "应用程序启动器",
        "Description[zh_TW]": "開啟應用程式用的啟動器",
        "EnabledByDefault": true,
        "Icon": "start-here-kde",
        "Id": "org.kde.plasma.kickoff",
        "License": "GPL-2.0+",
        "Name": "Application Launcher",
        "Name[af]": "Programlanseerder",
        "Name[ar]": "مطلق التّطبيقات",
        "Name[az]": "Tətbiq başladıcısı",
        "Name[be@latin]": "Uklučeńnie aplikacyi",
        "Name[be]": "Сродак запуску праграм",
        "Name[bg]": "Стартиране на програми",
        "Name[bn]": "অ্যাপলিকেশন লঞ্চার",
        "Name[bn_IN]": "অ্যাপ্লিকেশন সঞ্চালনকারী",
        "Name[bs]": "Pokretač programa",
        "Name[ca@valencia]": "Iniciador d'aplicacions",
        "Name[ca]": "Llançador d'aplicacions",
        "Name[cs]": "Spouštěč aplikací",
        "Name[csb]": "Zrëszôcz programów",
        "Name[da]": "Programstarter",
        "Name[de]": "Anwendungs-Starter",
        "Name[el]": "Εκτελεστής εφαρμογών",
        "Name[en_GB]": "Application Launcher",
        "Name[eo]": "Aplikaĵolanĉilo",
        "Name[es]": "Lanzador de aplicaciones",
        "Name[et]": "Rakenduste käivitaja",
        "Name[eu]": "Aplikazio-abiarazlea",
        "Name[fa]": "راه‌انداز برنامه",
        "Name[fi]": "Sovelluskäynnistin",
        "Name[fr]": "Lanceur d'application",
        "Name[fy]": "In applikaashe starter",
        "Name[ga]": "Tosaitheoir Feidhmchlár",
        "Name[gl]": "Iniciador de aplicacións",
        "Name[gu]": "કાર્યક્રમ ચલાવનાર",
        "Name[he]": "משגר יישומים",
        "Name[hi]": "अनुप्रयोग चालक",
        "Name[hne]": "अनुपरयोग चालू करइया",
        "Name[hr]": "Pokretač aplikacija",
        "Name[hsb]": "Startowar za aplikacije",
        "Name[hu]": "Programindító",
        "Name[ia]": "Lanceator de application",
        "Name[id]": "Peluncur Aplikasi",
        "Name[ie]": "Lansator de applicationes",
        "Name[is]": "Forritaræsir",
        "Name[it]": "Avviatore di applicazioni",
        "Name[ja]": "アプリケーションランチャー",
        "Name[ka]": "აპლიკაციების გამშვები",
        "Name[kk]": "Қолданбаны жегу",
        "Name[km]": "កម្មវិធី​ចាប់ផ្ដើម​កម្មវិធី​",
        "Name[kn]": "ಅನ್ವಯ ಪ್ರಕ್ಷೇಪಕ (ಲಾಚರ್)",
        "Name[ko]": "프로그램 실행기",
        "Name[ku]": "Deskpêkerê Sepanan",
        "Name[lt]": "Programų paleidyklė",
        "Name[lv]": "Programmu palaidējs",
        "Name[mai]": "अनुप्रयोग चालक",
        "Name[mk]": "Стартувач на апликации",
        "Name[ml]": "പ്രയോഗവിക്ഷേപിണി",
        "Name[mr]": "अनुप्रयोग प्रक्षेपक",
        "Name[nb]": "Programstarter",
        "Name[nds]": "Programmoproper",
        "Name[ne]": "अनुप्रयोक सुरुआतकर्ता",
        "Name[nl]": "Programmastarter",
        "Name[nn]": "Program­startar",
        "Name[or]": "ପ୍ରୟୋଗ ଆରମ୍ଭକର୍ତ୍ତା",
        "Name[pa]": "ਐਪਲੀਕੇਸ਼ਨ ਲਾਂਚਰ",
        "Name[pl]": "Uruchamiacz programów",
        "Name[pt]": "Lançador de Aplicações",
        "Name[pt_BR]": "Lançador de aplicativos",
        "Name[ro]": "Lansator de aplicații",
        "Name[ru]": "Меню запуска приложений",
        "Name[se]": "Prográmmaálggaheaddji",
        "Name[si]": "යෙදුම් ඇරඹුම",
        "Name[sk]": "Spúšťač aplikácií",
        "Name[sl]": "Zaganjalnik programov",
        "Name[sr@ijekavian]": "покретач програма",
        "Name[sr@ijekavianlatin]": "pokretač programa",
        "Name[sr@latin]": "pokretač programa",
        "Name[sr]": "покретач програма",
        "Name[sv]": "Starta program",
        "Name[ta]": "செயலி ஏவி",
        "Name[te]": "అనువర్తనం దించునది",
        "Name[tg]": "Оғозкунандаи барномаҳо",
        "Name[th]": "ตัวเรียกใช้งานโปรแกรม",
        "Name[tr]": "Uygulama Başlatıcı",
        "Name[ug]": "پروگرامما ئىجرا قىلغۇچ",
        "Name[uk]": "Інструмент запуску програм",
        "Name[uz@cyrillic]": "Дастурларни ишга туширувчи",
        "Name[uz]": "Dasturlarni ishga tushiruvchi",
        "Name[vi]": "Trình khởi chạy ứng dụng",
        "Name[wa]": "Enondeu di programe",
        "Name[x-test]": "xxApplication Launcherxx",
        "Name[zh_CN]": "应用程序启动器",
        "Name[zh_TW]": "應用程式啟動器",
        "ServiceTypes": [
            "Plasma/Applet"
        ],
        "Version": "2.0",
        "Website": "https://userbase.kde.org/Plasma/Kickoff"
    },
    "X-Plasma-API": "declarativeappletscript",
    "X-Plasma-MainScript": "ui/Kickoff.qml",
    "X-Plasma-Provides": [
        "org.kde.plasma.launchermenu"
    ],
    "X-Plasma-RequiredExtensions": [
        "LaunchApp"
    ]
}
